1
…
station_count <- precipitaciones %>%
  group_by(ESTACIÓN) %>%
  summarize(Conteo = n(), .groups = 'drop') %>%
  arrange(ESTACIÓN)  # Ordenar alfabéticamente por estación

# Mostrar la tabla con conteos ordenados
print(station_count)

# A tibble: 174 × 2
   ESTACIÓN       Conteo
   <chr>           <int>
 1 Acandy             42
 2 Agua Fría          22
 3 Alco               37
 4 Almaviva           21
 5 Alto Caicedo        4
 6 Alto La Puerta      3
 7 Alto Saboya        36
 8 Alto de Aire       33
 9 América            10
10 Anclaje 14         31
# ℹ 164 more rows
…
